-------------------------------------------------------------------------------
Test set: br.com.bolivar.banks.domain.BancoDomainTest
-------------------------------------------------------------------------------
Tests run: 3, Failures: 0, Errors: 0, Skipped: 0, Time elapsed: 0.001 s - in br.com.bolivar.banks.domain.BancoDomainTest
