br/com/bolivar/banks/database/ContaDao.class
br/com/bolivar/banks/domain/Conta.class
br/com/bolivar/banks/domain/Conta$ContaBuilder.class
br/com/bolivar/banks/business/ContaBusiness.class
br/com/bolivar/banks/database/ClienteDao.class
br/com/bolivar/banks/business/ClienteBusiness.class
br/com/bolivar/banks/domain/Banco.class
br/com/bolivar/banks/database/BancoDao.class
br/com/bolivar/banks/domain/Cliente.class
br/com/bolivar/banks/business/BancoBusiness.class
br/com/bolivar/banks/domain/Banco$BancoBuilder.class
